<?xml version="1.0" encoding="utf-8"?>
<!-- Generator: Adobe Illustrator 19.0.1, SVG Export Plug-In . SVG Version: 6.00 Build 0)  -->
<svg version="1.1" id="Layer_1" xmlns="http://www.w3.org/2000/svg" xmlns:xlink="http://www.w3.org/1999/xlink" x="0px" y="0px"
	 viewBox="0 0 94.8 74.4" style="enable-background:new 0 0 94.8 74.4;" xml:space="preserve">
<style type="text/css">
	.st0{fill-rule:evenodd;clip-rule:evenodd;fill:#FA7328;}
	.st1{fill:#FA7328;}
</style>
<g id="XMLID_664_">
	<path id="XMLID_680_" class="st0" d="M43.1,19.2c-0.1-0.6-0.8-1.1-1.4-1.1c-2,0-3.7-1.2-4.5-3c-0.8-1.8-0.3-4,1.2-5.3
		c0.5-0.4,0.5-1.1,0.1-1.6c-1-1.3-2.2-2.5-3.4-3.5c-0.5-0.4-1.2-0.3-1.6,0.1c-1.3,1.4-3.6,2-5.4,1.2c-1.9-0.8-3-2.7-2.9-4.7
		c0-0.6-0.4-1.2-1.1-1.3c-1.6-0.2-3.2-0.2-4.9,0c-0.6,0.1-1.1,0.6-1.1,1.2c0.1,2-1.1,3.9-3,4.6c-1.8,0.7-4.1,0.2-5.4-1.2
		C9.5,4.3,8.8,4.2,8.3,4.6C7,5.6,5.8,6.8,4.8,8.1C4.4,8.6,4.4,9.3,4.9,9.7c1.5,1.4,2,3.5,1.2,5.4c-0.7,1.8-2.6,2.9-4.7,2.9
		c-0.7,0-1.2,0.4-1.2,1.1C0,20.7,0,22.4,0.1,24c0.1,0.6,0.8,1.1,1.4,1.1c1.9,0,3.7,1.1,4.5,3c0.8,1.8,0.3,4-1.2,5.4
		c-0.5,0.4-0.5,1.1-0.1,1.6c1,1.3,2.2,2.4,3.4,3.5c0.5,0.4,1.2,0.3,1.6-0.1c1.3-1.4,3.6-2,5.4-1.2c1.9,0.8,3,2.7,2.9,4.7
		c0,0.6,0.4,1.2,1.1,1.3c0.8,0.1,1.7,0.1,2.5,0.1c0.8,0,1.6,0,2.4-0.1c0.6-0.1,1.1-0.6,1.1-1.2c-0.1-2,1.1-3.9,3-4.6
		c1.8-0.7,4.1-0.2,5.4,1.2c0.4,0.5,1.1,0.5,1.6,0.1c1.3-1,2.5-2.2,3.5-3.5c0.4-0.5,0.3-1.2-0.1-1.6c-1.5-1.4-2-3.5-1.2-5.4
		c0.7-1.8,2.5-2.9,4.4-2.9l0.3,0c0.6,0.1,1.2-0.4,1.3-1.1C43.3,22.5,43.3,20.9,43.1,19.2L43.1,19.2z M21.7,35.8
		c-7.8,0-14.1-6.3-14.1-14.1c0-7.8,6.3-14.1,14.1-14.1c7.8,0,14.1,6.3,14.1,14.1C35.8,29.5,29.5,35.8,21.7,35.8L21.7,35.8z
		 M21.7,28.9"/>
	<g id="XMLID_665_">
		<path id="XMLID_672_" class="st1" d="M92.1,60.8L71.2,46.7c1.7-2.9,2.9-6.1,3.5-9.6c2.8-16.1-8-31.6-24.1-34.4
			c-16.2-2.8-31.6,8-34.4,24.2c-2.8,16.1,8,31.6,24.2,34.4c9.2,1.6,18.2-1.2,24.7-6.9l18.2,18.5c2.2,2.3,5.6,2,7.5-0.5l3.1-4.2
			C95.6,65.6,94.9,62.3,92.1,60.8z M41.2,55.9C28,53.6,19.2,41,21.5,27.8c2.3-13.2,14.9-22,28.1-19.7c13.2,2.3,22,14.9,19.7,28.1
			C67,49.4,54.4,58.3,41.2,55.9z"/>
	</g>
</g>
</svg>
