<?xml version="1.0" encoding="utf-8"?>
<!-- Generator: Adobe Illustrator 19.0.1, SVG Export Plug-In . SVG Version: 6.00 Build 0)  -->
<svg version="1.1" id="Layer_1" xmlns="http://www.w3.org/2000/svg" xmlns:xlink="http://www.w3.org/1999/xlink" x="0px" y="0px"
	 viewBox="0 0 59.6 59.6" style="enable-background:new 0 0 59.6 59.6;" xml:space="preserve">
<style type="text/css">
	.st0{fill:#404039;}
	.st1{fill:#D4D6D9;}
</style>
<g id="XMLID_10164_">
	<g id="XMLID_10165_">
		<circle id="XMLID_10166_" class="st0" cx="29.8" cy="29.8" r="29.8"/>
	</g>
	<g id="XMLID_14051_">
		<path id="XMLID_10168_" class="st1" d="M33.6,40.2l1.8,0.8l5-3.5h-2.9L33.6,40.2z M33.6,40"/>
		<path id="XMLID_10171_" class="st1" d="M32.4,25.5l5.1,3.7l1.8-0.7l-4.1-3H32.4z M32.4,25.4"/>
		<path id="XMLID_10174_" class="st1" d="M26.2,40.2l-3.9-2.7h-2.9l5,3.5L26.2,40.2z M26.2,40"/>
		<path id="XMLID_10177_" class="st1" d="M27.4,25.5h-2.9l-4.1,2.9l1.8,0.7L27.4,25.5z M27.4,25.4"/>
		<path id="XMLID_10180_" class="st1" d="M29.9,8c-2.3,0-3.5,1.2-3.5,3.4c0,3.1,1.3,4.9,3.5,4.9c0,0,3.5,0.1,3.5-4.9
			C33.4,9.2,32.2,8,29.9,8L29.9,8z M29.9,8"/>
		<path id="XMLID_10183_" class="st1" d="M36,18.7l-3.5-1.4l-0.8-0.7c-0.2-0.2-0.5-0.2-0.7,0l-1.1,1.1l-1.1-1.1
			c-0.2-0.2-0.5-0.2-0.7,0l-0.8,0.7l-3.5,1.4c-1.1,0.4-1.1,4.8-1.2,4.8h14.7C37.1,23.5,37.1,19.1,36,18.7L36,18.7z M36,18.7"/>
		<path id="XMLID_10186_" class="st1" d="M16.5,28.5c0,0,3.5,0.1,3.5-4.9c0-2.2-1.2-3.4-3.5-3.4c-2.3,0-3.5,1.2-3.5,3.4
			C13,26.7,14.4,28.5,16.5,28.5L16.5,28.5z M16.5,28.5"/>
		<path id="XMLID_10189_" class="st1" d="M22.6,31.3l-3.5-1.6l-0.8-0.8c-0.2-0.2-0.5-0.2-0.7,0L16.5,30l-1.1-1.1
			c-0.2-0.2-0.5-0.2-0.7,0l-0.8,0.7l-3.5,1.8c-1.1,0.4-1.1,4.2-1.2,5.2h14.7C23.8,35.5,23.8,31.7,22.6,31.3L22.6,31.3z M22.6,30.8"
			/>
		<path id="XMLID_10192_" class="st1" d="M43.3,28.5c0,0,3.5,0.1,3.5-4.9c0-2.2-1.2-3.4-3.5-3.4c-2.3,0-3.5,1.2-3.5,3.4
			C39.8,26.7,41.2,28.5,43.3,28.5L43.3,28.5z M43.3,28.5"/>
		<path id="XMLID_10195_" class="st1" d="M49.4,31.3L46,29.7l-0.8-0.8c-0.2-0.2-0.5-0.2-0.7,0L43.3,30l-1.1-1.1
			c-0.2-0.2-0.5-0.2-0.7,0l-0.8,0.7l-3.5,1.8c-1.1,0.4-1.1,4.2-1.2,5.2h14.7C50.6,35.5,50.6,31.7,49.4,31.3L49.4,31.3z M49.4,30.8"
			/>
		<path id="XMLID_10198_" class="st1" d="M29.9,31.9c-2.3,0-3.5,1.2-3.5,3.4c0,3.1,1.3,5,3.5,4.9c0,0,3.5,0.1,3.5-4.9
			C33.4,33.1,32.2,31.9,29.9,31.9L29.9,31.9z M29.9,31.9"/>
		<path id="XMLID_10201_" class="st1" d="M36,42.6l-3.5-1.4l-0.8-0.7c-0.2-0.2-0.5-0.2-0.7,0l-1.1,1.1l-1.1-1.1
			c-0.2-0.2-0.5-0.2-0.7,0l-0.8,0.7l-3.5,1.4c-1.1,0.4-1.1,4.8-1.2,4.8h14.7C37.1,47.5,37.1,43.1,36,42.6L36,42.6z M36,42.6"/>
	</g>
</g>
</svg>
